Socioeconomic and Demographic Data
…
  TAZ Network

  Socioeconomic and Demographic Data

  Highway Network

Socioeconomic and Demographic Data

Jacob Ford DCHC MPO

4/5/2021

Employment and demographic data were handled based on which county the new TAZ inhabits. For new Alamance County TAZs, the Triad’s existing SE data

## # A tibble: 278 x 12
##       ID COUNTY_NAME    HH POP_GRP_QT POP_IN_HH EMP_HWYRET EMP_IND EMP_RETAIL
##    <int> <chr>       <dbl>      <dbl>     <dbl>      <dbl>   <dbl>      <dbl>
##  1  4001 Alamance     81.7         0      187.           5   16.8       14.5 
##  2  4002 Alamance     71.3         0      161.          66   47.3      130.  
##  3  4003 Alamance    320.          0      778.          11   13.0       53.4 
##  4  4004 Alamance    285.          0      586.           0    5.34       3.81
##  5  4005 Alamance     67.8         0      182.           5    6.86       1.52
##  6  4006 Alamance    167.          6.     416.           0    1.52       0   
##  7  4007 Alamance    262.          0      632.          37   15.2       96.1 
##  8  4008 Alamance     25.0         0       66.7          0    1.52       0   
##  9  4009 Alamance    169.          0      437.           2    6.86       9.15
## 10  4010 Alamance    117.          0      269.           5    1.52      25.9 
## # ... with 268 more rows, and 4 more variables: EMP_SERVICE <dbl>,
## #   EMP_OFFICE <dbl>, SCHOOL_EMP <int>, K12_STUDENT <int>
…
